1 Rahul
2 Meena
3 William
4 James
5 Benjamin
6 Gayu
7 Akash
8 Abhishek
9 Jenifer
10 Rakshith
11 Karan
12 Lucas  
13 Henry  
14 Alexander
15 Elizabeth
16 Sofia
17 Mia
18 Grace
19 Nora
20 Iris
21 Nova
22 Jack
23 John
24 David
25 Ganesh
26 Gomathi
27 Preethi
28 Maha
29 Juli
30 Ivy
31 Santhosh
32 Vignesh
33 Aadhi
34 Gautham
35 Ruby
36 Anton
37 Steev
38 Rebe
39 Sara
40 Samantha
41 Lydia
42 Kumar
43 Sam
44 Adline
45 Lalith
46 Charles
47 Jazz
48 Josh
49 Kris
50 anirudh
51 Janani
52 Jaanu
53 sukil
54 hari
55 shiny
56 sherly
57 monu
58 sharan
59 geetha
60 Ram
61 venkat
62 Aishu
63 tilak
64 keerthi
65 guhan
66 Jegan
67 priya
68 swetha
69 manisha
70 harini